Project 1: Exploratory Data Analysis
…
If you have multiple observations on the joining variable in either dataset, fix this by collapsing via summarize

Discuss the process in words, including why you chose the join you did

Discuss which cases were dropped, if any, and potential problems with this

library(tidyr)
library(dplyr)
alldata <- us_rent_income2 %>% full_join(USArrests2, by = c(NAME = "State")) %>% 
    slice(1:16, 19:102)

alldata

## # A tibble: 100 x 9
##    GEOID NAME         moe income  rent Murder Assault UrbanPop  Rape
##    <chr> <chr>      <dbl>  <dbl> <dbl>  <dbl>   <int>    <int> <dbl>
##  1 01    Alabama      136  24476    NA   13.2     236       58  21.2
##  2 01    Alabama        3     NA   747   13.2     236       58  21.2
##  3 02    Alaska       508  32940    NA   10       263       48  44.5
##  4 02    Alaska        13     NA  1200   10       263       48  44.5
##  5 04    Arizona      148  27517    NA    8.1     294       80  31  
##  6 04    Arizona        4     NA   972    8.1     294       80  31  
##  7 05    Arkansas     165  23789    NA    8.8     190       50  19.5
##  8 05    Arkansas       5     NA   709    8.8     190       50  19.5
##  9 06    California   109  29454    NA    9       276       91  40.6
## 10 06    California     3     NA  1358    9       276       91  40.6
## # … with 90 more rows
…
alldata2 %>% summarize(n_States = n_distinct(NAME), n_GEOID = n_distinct(GEOID), 
    min_Assault = min(Assault), max_Murder = max(Murder), sd_UrbanPop = sd(UrbanPop), 
    median_Rape = median(Rape))

## # A tibble: 1 x 6
##   n_States n_GEOID min_Assault max_Murder sd_UrbanPop median_Rape
##      <int>   <int>       <int>      <dbl>       <dbl>       <dbl>
## 1       50      50          45       17.4        14.4        20.1

subdata %>% select(NAME, Murder, Variable, Value, IM_Rate)

## # A tibble: 50 x 5
## # Groups:   NAME [50]
##    NAME          Murder Variable Value IM_Rate
##    <chr>          <dbl> <chr>    <dbl>   <dbl>
##  1 North Dakota     0.8 income   32336  40420 
##  2 New Hampshire    2.1 income   33172  15796.
##  3 Iowa             2.2 income   30002  13637.
##  4 Vermont          2.2 income   29351  13341.
##  5 Maine            2.1 income   26841  12781.
##  6 Minnesota        2.7 income   32734  12124.
##  7 Wisconsin        2.6 income   29868  11488.
##  8 Connecticut      3.3 income   35326  10705.
##  9 Idaho            2.6 income   25298   9730 
## 10 Rhode Island     3.4 income   30210   8885.
## # … with 40 more rows

subdata2 %>% select(NAME, Murder, Variable, Value, RM_Rate)

## # A tibble: 50 x 5
## # Groups:   NAME [50]
##    NAME          Murder Variable Value RM_Rate
##    <chr>          <dbl> <chr>    <dbl>   <dbl>
##  1 North Dakota     0.8 rent       775    969.
##  2 New Hampshire    2.1 rent      1052    501.
##  3 Vermont          2.2 rent       945    430.
##  4 Maine            2.1 rent       808    385.
##  5 Connecticut      3.3 rent      1123    340.
##  6 Iowa             2.2 rent       740    336.
##  7 Minnesota        2.7 rent       906    336.
##  8 Wisconsin        2.6 rent       813    313.
##  9 Idaho            2.6 rent       792    305.
## 10 Utah             3.2 rent       948    296.
## # … with 40 more rows
…
